{
  "Items": [
    {
      "ItemNumber": "a9",
      "Title": "Iphone9 - title",
      "Description": "Iphone9",
      "UnitPrice": "100",
      "InventoryQty": "200",
      "Label": "Apple"

    },
    {
      "ItemNumber": "a10",
      "Title": "IphoneX - title",
      "Description": "IphoneX",
      "UnitPrice": "100",
      "InventoryQty": "50",
      "Label": "Apple"
    },
    {
      "ItemNumber": "s10",
      "Title": "Samsung - title",
      "Description": "Samsung10",
      "UnitPrice": "50",
      "InventoryQty": "100",
      "Label": "Samsung"
    }
  ]
}